Copernicus Global Land Cover
…
# area of masked raster
area_sqm <- terra::area(ven_mask)
# in sqkm
area_sqkm <- area_sqm/1000000
# area per row of dataframe
area_sqkm_per_cell <- area_sqkm/nrow(df.ven)

Finally, we call the function lc_clases from the sourced script copernicus-land-cover.R which takes the data frame df.ven as argument and returns another data frame data.final in long table format with the area of individual land cover classes.

# call the function lc_classes and receive the result
df.final_long <- lc_classes(df.ven)
# view the resulting data
df.final_long

# A tibble: 23 x 3
      WDPAID name                                                          value
       <dbl> <chr>                                                         <dbl>
 1 555705224 copernicus_lc_empty_area_sqkm_2015                          9.67e-1
 2 555705224 copernicus_lc_closed_forest_evergreen_needle_leaf_area_sqk… 0      
 3 555705224 copernicus_lc_closed_forest_deciduous_needle_leaf_area_sqk… 0      
 4 555705224 copernicus_lc_closed_forest_evergreen_broad_leaf_area_sqkm… 9.82e+3
 5 555705224 copernicus_lc_closed_forest_deciduous_broad_leaf_area_sqkm… 1.14e+2
 6 555705224 copernicus_lc_closed_forest_mixed_area_sqkm_2015            0      
 7 555705224 copernicus_lc_closed_forest_unknown_area_sqkm_2015          1.93e+3
 8 555705224 copernicus_lc_open_forest_evergreen_needle_leaf_area_sqkm_… 0      
 9 555705224 copernicus_lc_open_forest_deciduous_needle_leaf_area_sqkm_… 0      
10 555705224 copernicus_lc_open_forest_evergreen_broad_leaf_area_sqkm_2… 1.18e+3
# … with 13 more rows
…
